…
    ## file path:          /Users/wangkeyi/Library/Caches/rnoaa/ghcnd/USS0023B17S.dly

    ## file last updated:  2019-10-07 13:19:18

    ## file min/max dates: 1999-09-01 / 2019-10-31

### group by and counting

``` r
 weather_df%>%
  group_by(name,month)
```

    ## # A tibble: 1,095 x 7
    ## # Groups:   name, month [36]
    ##    name           id          date       month       prcp  tmax  tmin
    ##    <chr>          <chr>       <date>     <date>     <dbl> <dbl> <dbl>
    ##  1 CentralPark_NY USW00094728 2017-01-01 2017-01-01     0   8.9   4.4
    ##  2 CentralPark_NY USW00094728 2017-01-02 2017-01-01    53   5     2.8
    ##  3 CentralPark_NY USW00094728 2017-01-03 2017-01-01   147   6.1   3.9
    ##  4 CentralPark_NY USW00094728 2017-01-04 2017-01-01     0  11.1   1.1
    ##  5 CentralPark_NY USW00094728 2017-01-05 2017-01-01     0   1.1  -2.7
    ##  6 CentralPark_NY USW00094728 2017-01-06 2017-01-01    13   0.6  -3.8
    ##  7 CentralPark_NY USW00094728 2017-01-07 2017-01-01    81  -3.2  -6.6
    ##  8 CentralPark_NY USW00094728 2017-01-08 2017-01-01     0  -3.8  -8.8
    ##  9 CentralPark_NY USW00094728 2017-01-09 2017-01-01     0  -4.9  -9.9
    ## 10 CentralPark_NY USW00094728 2017-01-10 2017-01-01     0   7.8  -6  
    ## # … with 1,085 more rows
…
    ## # A tibble: 3 x 2
    ##   name           n_obs
    ##   <chr>          <int>
    ## 1 CentralPark_NY   365
    ## 2 Waikiki_HA       365
    ## 3 Waterhole_WA     365

``` r
weather_df%>%
  group_by(month, name)%>%
  summarize(n_obs = n())   ### count the number of location based on month
```

    ## # A tibble: 36 x 3
    ## # Groups:   month [12]
    ##    month      name           n_obs
    ##    <date>     <chr>          <int>
    ##  1 2017-01-01 CentralPark_NY    31
    ##  2 2017-01-01 Waikiki_HA        31
    ##  3 2017-01-01 Waterhole_WA      31
    ##  4 2017-02-01 CentralPark_NY    28
    ##  5 2017-02-01 Waikiki_HA        28
    ##  6 2017-02-01 Waterhole_WA      28
    ##  7 2017-03-01 CentralPark_NY    31
    ##  8 2017-03-01 Waikiki_HA        31
    ##  9 2017-03-01 Waterhole_WA      31
    ## 10 2017-04-01 CentralPark_NY    30
    ## # … with 26 more rows
…
``` r
weather_df%>%
  count(name,month)
```

    ## # A tibble: 36 x 3
    ##    name           month          n
    ##    <chr>          <date>     <int>
    ##  1 CentralPark_NY 2017-01-01    31
    ##  2 CentralPark_NY 2017-02-01    28
    ##  3 CentralPark_NY 2017-03-01    31
    ##  4 CentralPark_NY 2017-04-01    30
    ##  5 CentralPark_NY 2017-05-01    31
    ##  6 CentralPark_NY 2017-06-01    30
    ##  7 CentralPark_NY 2017-07-01    31
    ##  8 CentralPark_NY 2017-08-01    31
    ##  9 CentralPark_NY 2017-09-01    30
    ## 10 CentralPark_NY 2017-10-01    31
    ## # … with 26 more rows
